module gitlab.com/msex/srv_strategy_bus

go 1.17

require gitlab.com/flex_comp/kitex v0.2.0

require (
	github.com/bytedance/gopkg v0.0.0-20211117073611-9a8af3eefa95
	github.com/cloudwego/kitex v0.1.3
	gitlab.com/flex_comp/comp v0.1.4
	gitlab.com/flex_comp/log v0.1.6
	gitlab.com/flex_comp/orm v0.1.3
	gitlab.com/flex_comp/remote_conf v0.1.6
	gitlab.com/flex_comp/util v0.2.6
	gitlab.com/msex/define v0.0.0-20211227114056-0a10a9df9622
	gitlab.com/msex/model_db v0.0.0-20220103080823-2eeaa793909d
	gitlab.com/msex/model_pb v0.1.14
)

require (
	cloud.google.com/go v0.93.3 // indirect
	cloud.google.com/go/firestore v1.6.0 // indirect
	github.com/FactomProject/basen v0.0.0-20150613233007-fe3947df716e // indirect
	github.com/FactomProject/btcutilecc v0.0.0-20130527213604-d3a63a5752ec // indirect
	github.com/apache/thrift v0.13.0 // indirect
	github.com/armon/go-metrics v0.0.0-20180917152333-f0300d1749da // indirect
	github.com/cespare/xxhash v1.1.0 // indirect
	github.com/choleraehyq/pid v0.0.12 // indirect
	github.com/cloudwego/netpoll v0.1.2 // indirect
	github.com/cloudwego/netpoll-http2 v0.0.6 // indirect
	github.com/cloudwego/thriftgo v0.1.2 // indirect
	github.com/coreos/go-semver v0.3.0 // indirect
	github.com/coreos/go-systemd/v22 v22.3.2 // indirect
	github.com/fatih/color v1.9.0 // indirect
	github.com/fsnotify/fsnotify v1.5.1 // indirect
	github.com/go-sql-driver/mysql v1.6.0 // indirect
	github.com/gogo/protobuf v1.3.2 // indirect
	github.com/golang/groupcache v0.0.0-20210331224755-41bb18bfe9da // indirect
	github.com/golang/protobuf v1.5.2 // indirect
	github.com/google/go-cmp v0.5.6 // indirect
	github.com/googleapis/gax-go/v2 v2.1.0 // indirect
	github.com/hashicorp/consul/api v1.10.1 // indirect
	github.com/hashicorp/go-cleanhttp v0.5.1 // indirect
	github.com/hashicorp/go-hclog v0.12.0 // indirect
	github.com/hashicorp/go-immutable-radix v1.0.0 // indirect
	github.com/hashicorp/go-rootcerts v1.0.2 // indirect
	github.com/hashicorp/golang-lru v0.5.1 // indirect
	github.com/hashicorp/hcl v1.0.0 // indirect
	github.com/hashicorp/serf v0.9.5 // indirect
	github.com/jinzhu/inflection v1.0.0 // indirect
	github.com/jinzhu/now v1.1.3 // indirect
	github.com/json-iterator/go v1.1.11 // indirect
	github.com/kitex-contrib/registry-etcd v0.0.0-20211207110456-45d9f8b00e1f // indirect
	github.com/lazybeaver/xorshift v0.0.0-20170702203709-ce511d4823dd // indirect
	github.com/magiconair/properties v1.8.5 // indirect
	github.com/mattn/go-colorable v0.1.6 // indirect
	github.com/mattn/go-isatty v0.0.12 // indirect
	github.com/mitchellh/go-homedir v1.1.0 // indirect
	github.com/mitchellh/mapstructure v1.4.2 // indirect
	github.com/modern-go/concurrent v0.0.0-20180306012644-bacd9c7ef1dd // indirect
	github.com/modern-go/reflect2 v1.0.1 // indirect
	github.com/pelletier/go-toml v1.9.4 // indirect
	github.com/sagikazarmark/crypt v0.1.0 // indirect
	github.com/spf13/afero v1.6.0 // indirect
	github.com/spf13/cast v1.4.1 // indirect
	github.com/spf13/jwalterweatherman v1.1.0 // indirect
	github.com/spf13/pflag v1.0.5 // indirect
	github.com/spf13/viper v1.9.0 // indirect
	github.com/stretchr/objx v0.2.0 // indirect
	github.com/subosito/gotenv v1.2.0 // indirect
	github.com/tidwall/gjson v1.9.3 // indirect
	github.com/tidwall/match v1.1.1 // indirect
	github.com/tidwall/pretty v1.2.0 // indirect
	github.com/tyler-smith/go-bip32 v1.0.0 // indirect
	github.com/tyler-smith/go-bip39 v1.1.0 // indirect
	go.etcd.io/etcd/api/v3 v3.5.1 // indirect
	go.etcd.io/etcd/client/pkg/v3 v3.5.1 // indirect
	go.etcd.io/etcd/client/v2 v2.305.1 // indirect
	go.etcd.io/etcd/client/v3 v3.5.1 // indirect
	go.opencensus.io v0.23.0 // indirect
	go.uber.org/atomic v1.8.0 // indirect
	go.uber.org/multierr v1.6.0 // indirect
	go.uber.org/zap v1.18.1 // indirect
	golang.org/x/crypto v0.0.0-20211117183948-ae814b36b871 // indirect
	golang.org/x/net v0.0.0-20211112202133-69e39bad7dc2 // indirect
	golang.org/x/oauth2 v0.0.0-20210819190943-2bc19b11175f // indirect
	golang.org/x/sync v0.0.0-20210220032951-036812b2e83c // indirect
	golang.org/x/sys v0.0.0-20211205182925-97ca703d548d // indirect
	golang.org/x/text v0.3.7 // indirect
	google.golang.org/api v0.56.0 // indirect
	google.golang.org/appengine v1.6.7 // indirect
	google.golang.org/genproto v0.0.0-20210828152312-66f60bf46e71 // indirect
	google.golang.org/grpc v1.40.0 // indirect
	google.golang.org/protobuf v1.27.1 // indirect
	gopkg.in/ini.v1 v1.63.2 // indirect
	gopkg.in/natefinch/lumberjack.v2 v2.0.0 // indirect
	gopkg.in/yaml.v2 v2.4.0 // indirect
	gopkg.in/yaml.v3 v3.0.0-20210107192922-496545a6307b // indirect
	gorm.io/driver/mysql v1.2.1 // indirect
	gorm.io/gorm v1.22.4 // indirect
	gorm.io/plugin/dbresolver v1.1.0 // indirect
)
